%YAML 1.1
%TAG !u! tag:unity3d.com,2011:
--- !u!1045 &1
EditorBuildSettings:
  m_ObjectHideFlags: 0
  serializedVersion: 2
  m_Scenes:
  - enabled: 1
    path: Assets/Scenes/Menu.unity
    guid: d00e38b23c6e44d20a62a560fc84cebf
  - enabled: 1
    path: Assets/Scenes/Course01.unity
    guid: 49c98a96faec4480abe88a2f686aa315
  - enabled: 1
    path: Assets/Scenes/Course02.unity
    guid: 5ff7a7681dff04ee4891da1c7d21b7f9
  - enabled: 1
    path: Assets/Scenes/Course03.unity
    guid: b3f4503bab8464c4186cf9250d3c253f
  m_configObjects: {}
